Young Statisticians Workshop: Developing Your Career to Thrive in a Data-rich, Technology-driven, Reproducible Research Environment
…
---
# Gather column names into long form

```r
gather(genes, variable, expr, -id) 
# A tibble: 33 x 3
       id variable      expr
    <chr>    <chr>     <dbl>
 1 Gene 1  WI-6.R1 2.1824242
 2 Gene 2  WI-6.R1 1.4642236
 3 Gene 3  WI-6.R1 2.0317925
 4 Gene 1  WI-6.R2 2.2042219
 5 Gene 2  WI-6.R2 0.5854472
 6 Gene 3  WI-6.R2 0.8701078
 7 Gene 1  WI-6.R4 4.1956364
 8 Gene 2  WI-6.R4 1.8592378
 9 Gene 3  WI-6.R4 3.2819835
10 Gene 1  WM-6.R1 2.6273345
# ... with 23 more rows
```

---
# Separate columns

```r
genes %>%
  gather(variable, expr, -id) %>%
  separate(variable, c("trt", "leftover"), "-") 
# A tibble: 33 x 4
       id   trt leftover      expr
 *  <chr> <chr>    <chr>     <dbl>
 1 Gene 1    WI     6.R1 2.1824242
 2 Gene 2    WI     6.R1 1.4642236
 3 Gene 3    WI     6.R1 2.0317925
 4 Gene 1    WI     6.R2 2.2042219
 5 Gene 2    WI     6.R2 0.5854472
 6 Gene 3    WI     6.R2 0.8701078
 7 Gene 1    WI     6.R4 4.1956364
 8 Gene 2    WI     6.R4 1.8592378
 9 Gene 3    WI     6.R4 3.2819835
10 Gene 1    WM     6.R1 2.6273345
# ... with 23 more rows
```

---

```r
genes %>%
  gather(variable, expr, -id) %>%
  separate(variable, c("trt", "leftover"), "-") %>%
  separate(leftover, c("time", "rep"), "\\.") 
# A tibble: 33 x 5
       id   trt  time   rep      expr
 *  <chr> <chr> <chr> <chr>     <dbl>
 1 Gene 1    WI     6    R1 2.1824242
 2 Gene 2    WI     6    R1 1.4642236
 3 Gene 3    WI     6    R1 2.0317925
 4 Gene 1    WI     6    R2 2.2042219
 5 Gene 2    WI     6    R2 0.5854472
 6 Gene 3    WI     6    R2 0.8701078
 7 Gene 1    WI     6    R4 4.1956364
 8 Gene 2    WI     6    R4 1.8592378
 9 Gene 3    WI     6    R4 3.2819835
10 Gene 1    WM     6    R1 2.6273345
# ... with 23 more rows
```
…
---
# Select

Choose some of the __variables__.

```r
airport <- read_csv("data/airports.csv")
airport
# A tibble: 13,094 x 29
   AIRPORT_SEQ_ID AIRPORT_ID AIRPORT     DISPLAY_AIRPORT_NAME
            <int>      <int>   <chr>                    <chr>
 1        1000101      10001     01A     Afognak Lake Airport
 2        1000301      10003     03A  Bear Creek Mining Strip
 3        1000401      10004     04A          Lik Mining Camp
 4        1000501      10005     05A     Little Squaw Airport
 5        1000601      10006     06A             Kizhuyak Bay
 6        1000701      10007     07A    Klawock Seaplane Base
 7        1000801      10008     08A Elizabeth Island Airport
 8        1000901      10009     09A          Augustin Island
 9        1001001      10010     1B1          Columbia County
10        1001002      10010     1B1          Columbia County
# ... with 13,084 more rows, and 25 more variables:
#   DISPLAY_AIRPORT_CITY_NAME_FULL <chr>, AIRPORT_WAC <int>,
#   AIRPORT_COUNTRY_NAME <chr>, AIRPORT_COUNTRY_CODE_ISO <chr>,
#   AIRPORT_STATE_NAME <chr>, AIRPORT_STATE_CODE <chr>,
#   AIRPORT_STATE_FIPS <chr>, CITY_MARKET_ID <int>,
#   DISPLAY_CITY_MARKET_NAME_FULL <chr>, CITY_MARKET_WAC <int>,
#   LAT_DEGREES <int>, LAT_HEMISPHERE <chr>, LAT_MINUTES <int>,
#   LAT_SECONDS <int>, LATITUDE <dbl>, LON_DEGREES <int>,
#   LON_HEMISPHERE <chr>, LON_MINUTES <int>, LON_SECONDS <int>,
#   LONGITUDE <dbl>, AIRPORT_START_DATE <date>, AIRPORT_THRU_DATE <date>,
#   AIRPORT_IS_CLOSED <int>, AIRPORT_IS_LATEST <int>, X29 <chr>
```

---

```r
airport %>%
  select(AIRPORT, LATITUDE, LONGITUDE, AIRPORT_IS_LATEST, DISPLAY_AIRPORT_NAME)
# A tibble: 13,094 x 5
   AIRPORT LATITUDE  LONGITUDE AIRPORT_IS_LATEST     DISPLAY_AIRPORT_NAME
     <chr>    <dbl>      <dbl>             <int>                    <chr>
 1     01A 58.10944 -152.90667                 1     Afognak Lake Airport
 2     03A 65.54806 -161.07167                 1  Bear Creek Mining Strip
 3     04A 68.08333 -163.16667                 1          Lik Mining Camp
 4     05A 67.57000 -148.18389                 1     Little Squaw Airport
 5     06A 57.74528 -152.88278                 1             Kizhuyak Bay
 6     07A 55.55472 -133.10167                 1    Klawock Seaplane Base
 7     08A 59.15694 -151.82917                 1 Elizabeth Island Airport
 8     09A 59.36278 -153.43056                 1          Augustin Island
 9     1B1 42.28889  -73.71028                 0          Columbia County
10     1B1 42.29139  -73.71028                 1          Columbia County
# ... with 13,084 more rows
```
…
- Stats: `mean()`, `median()`, `sd()`, `min()`, `max()`, `sum()`
- Rounding: `floor()`, `ceiling()`, `trunc()`, `round()`, `signif()`

---
# Grouping and ungrouping

Summarise is most commonly called on subgroups of data. We might want to calculate statistics of the weather data across years. 

```r
melbtemp %>% group_by(year) %>%
  summarise(m = mean(TMAX, na.rm=TRUE), s = sd(TMAX, na.rm=TRUE), 
            mx = max(TMAX, na.rm=TRUE), mn = min(TMAX, na.rm=TRUE))
# A tibble: 45 x 5
    year        m        s    mx    mn
   <int>    <dbl>    <dbl> <dbl> <dbl>
 1  1970 17.65598 5.732199  36.3   6.5
 2  1971 19.44740 6.232913  38.0   9.3
 3  1972 20.09370 6.021887  39.0   8.4
 4  1973 19.27726 6.304111  39.8   6.5
 5  1974 19.23507 6.375121  36.4   8.5
 6  1975 19.51562 5.990767  39.0   6.2
 7  1976 19.42186 6.426436  41.4   7.5
 8  1977 19.38548 6.658039  40.2   8.0
 9  1978 18.78164 6.149057  38.8   8.2
10  1979 19.81260 6.663044  41.0  10.0
# ... with 35 more rows
```

If we want to more operations on the variable `year` after these calculations, you would need to do an `ungroup()` step.

---
# Melbourne max max temperature

<img src="2.data.organisation_files/figure-html/unnamed-chunk-30-1.png" style="display: block; margin: auto;" />

---
# Putting it together for the french fries

10 week sensory experiment, 12 individuals assessed taste of french fries on several scales (how potato-y, buttery, grassy, rancid, paint-y do they taste?), fried in one of 3 different oils, replicated twice. First few rows:

```
# A tibble: 696 x 9
     time treatment subject   rep potato buttery grassy rancid painty
 * <fctr>    <fctr>  <fctr> <dbl>  <dbl>   <dbl>  <dbl>  <dbl>  <dbl>
 1      1         1       3     1    2.9     0.0    0.0    0.0    5.5
 2      1         1       3     2   14.0     0.0    0.0    1.1    0.0
 3      1         1      10     1   11.0     6.4    0.0    0.0    0.0
 4      1         1      10     2    9.9     5.9    2.9    2.2    0.0
 5      1         1      15     1    1.2     0.1    0.0    1.1    5.1
 6      1         1      15     2    8.8     3.0    3.6    1.5    2.3
 7      1         1      16     1    9.0     2.6    0.4    0.1    0.2
 8      1         1      16     2    8.2     4.4    0.3    1.4    4.0
 9      1         1      19     1    7.0     3.2    0.0    4.9    3.2
10      1         1      19     2   13.0     0.0    3.1    4.3   10.3
# ... with 686 more rows
```
…
